{
  "manifest_version": 2,
  "name": "__MSG_extensionName__",
  "version": "1.0.0",
  "description": "__MSG_extensionDescription__",
  "default_locale": "it",
  "icons": {
    "16": "icons/16.png",
    "19": "icons/19.png",
    "38": "icons/38.png",
    "48": "icons/48.png",
    "96": "icons/96.png",
    "128": "icons/128.png"
  },
  "background": {
    "scripts": [
      "chrome-fix.js",
      "background.js"
    ]
  },
  "permissions": [
    "storage",
    "search"
  ],
  "storage": {
    "managed_schema": "managed-schema.json"
  },
  "chrome_url_overrides" : {
    "newtab": "newtab/index.html"
  },
  "options_ui": {
    "page": "options/index.html",
    "browser_style": true,
    "chrome_style": true
  },
  "update_url": "https://fnewtab.gitlab.io/fnewtab-updates/firefox/updates.xml",
  "key": "jmoliegoomaffdmiaoihhfomjcmjdgak"
}
